<?xml version="1.0" encoding="utf-8"?>
      <!-- Exported from Coolors.co - https://coolors.co/4c5333-4c5333-eaedf9-dbdfee-c4ada4-a0887d-e79a96-e3a3a6 -->
      <svg xmlns="http://www.w3.org/2000/svg" xmlns:xlink="http://www.w3.org/1999/xlink" version="1.1" viewBox="0 0 500 250" xml:space="preserve">
        <rect fill="#4c5333" x="0" y="0" width="62.5" height="220"/>,<rect fill="#4c5333" x="62.5" y="0" width="62.5" height="220"/>,<rect fill="#eaedf9" x="125" y="0" width="62.5" height="220"/>,<rect fill="#dbdfee" x="187.5" y="0" width="62.5" height="220"/>,<rect fill="#c4ada4" x="250" y="0" width="62.5" height="220"/>,<rect fill="#a0887d" x="312.5" y="0" width="62.5" height="220"/>,<rect fill="#e79a96" x="375" y="0" width="62.5" height="220"/>,<rect fill="#e3a3a6" x="437.5" y="0" width="62.5" height="220"/>
        <text x="10" y="235" font-family="Arial" font-size="6" alignment-baseline="middle">Exported from Coolors.co</text>
        <text x="490" y="235" font-family="Arial" font-size="6" alignment-baseline="middle" text-anchor="end">https://coolors.co/4c5333-4c5333-eaedf9-dbdfee-c4ada4-a0887d-e79a96-e3a3a6</text>
      </svg>