{
  "aspectWidth": 4,
  "aspectHeight": 3,
  "enableKeyboardZoom": true,
  "enableKeyboardRotation": true,
  "enableKeyboardNavigation": true,
  "enableMouseTranslation": true,
  "enableMouseZoom": true,
  "enableMouseRotation": true,
  "enableMouseNavigation": true,
  "updateURLOnFrameChange": true,
  "exportType": "pdf",
  "exportToPDFPageSize": "A4",
  "exportToPDFPageOrientation": "landscape",
  "exportToPDFInclude": "",
  "exportToPDFExclude": "",
  "exportToPPTXSlideSize": "screen4x3",
  "exportToPPTXInclude": "",
  "exportToPPTXExclude": "",
  "exportToVideoFormat": "webm",
  "exportToVideoWidth": 1280,
  "exportToVideoHeight": 720,
  "exportToVideoFrameRate": 50,
  "exportToVideoBitRate": 2000000,
  "frames": [
    {
      "frameId": "frame2014",
      "title": "Agenda",
      "titleLevel": 0,
      "notes": "",
      "timeoutMs": 0,
      "timeoutEnable": false,
      "transitionDurationMs": 1000,
      "showInFrameList": true,
      "showFrameNumber": true,
      "layerProperties": {
        "layer1": {
          "link": false,
          "referenceElementId": "path1723",
          "outlineElementId": "",
          "transitionTimingFunction": "linear",
          "transitionRelativeZoom": 0,
          "transitionPathId": ""
        },
        "__sozi_auto__": {
          "link": false,
          "referenceElementId": "",
          "outlineElementId": "",
          "transitionTimingFunction": "linear",
          "transitionRelativeZoom": 0,
          "transitionPathId": ""
        }
      },
      "cameraStates": {
        "layer1": {
          "cx": 79.46035466297927,
          "cy": 52.577070713483714,
          "width": 110.35519102471464,
          "height": 82.70549084523317,
          "opacity": 1,
          "angle": 0,
          "clipped": true,
          "clipXOffset": -2.696402164489452,
          "clipYOffset": -0.7085361365245832,
          "clipWidthFactor": 0.926048565121413,
          "clipHeightFactor": 0.9455081001472755
        },
        "__sozi_auto__": {
          "cx": 79.46035466297927,
          "cy": 52.577070713483714,
          "width": 110.35519102471466,
          "height": 82.70549084523317,
          "opacity": 1,
          "angle": 0,
          "clipped": true,
          "clipXOffset": -2.6964021644894522,
          "clipYOffset": -0.7085361365245832,
          "clipWidthFactor": 0.9260485651214129,
          "clipHeightFactor": 0.9455081001472755
        }
      },
      "cameraOffsets": {
        "layer1": {
          "deltaX": 32.085141039932395,
          "deltaY": 1.0856995586985576,
          "widthFactor": 2.6078896419370414,
          "heightFactor": 1.2572239787737831,
          "deltaAngle": 0
        }
      }
    },
    {
      "frameId": "frame4685",
      "title": "Reactive",
      "titleLevel": 0,
      "notes": "These will be added to the issue tracker.&nbsp;<div>We will need to be careful not to add rude remarks or personal identifiable info</div><div><br></div>",
      "timeoutMs": 0,
      "timeoutEnable": false,
      "transitionDurationMs": 1000,
      "showInFrameList": true,
      "showFrameNumber": true,
      "layerProperties": {
        "layer1": {
          "link": false,
          "referenceElementId": "path6252",
          "outlineElementId": "",
          "transitionTimingFunction": "linear",
          "transitionRelativeZoom": 0,
          "transitionPathId": ""
        },
        "__sozi_auto__": {
          "link": false,
          "referenceElementId": "",
          "outlineElementId": "",
          "transitionTimingFunction": "linear",
          "transitionRelativeZoom": 0,
          "transitionPathId": ""
        }
      },
      "cameraStates": {
        "layer1": {
          "cx": 215.1754514883489,
          "cy": 56.446035733453364,
          "width": 127.74992800998542,
          "height": 95.74194383971314,
          "opacity": 1,
          "angle": 0,
          "clipped": true,
          "clipXOffset": 0,
          "clipYOffset": 0,
          "clipWidthFactor": 0.9999999999999996,
          "clipHeightFactor": 0.9999999999999996
        },
        "__sozi_auto__": {
          "cx": 215.1754514883489,
          "cy": 56.446035733453364,
          "width": 127.74992800998542,
          "height": 95.74194383971314,
          "opacity": 1,
          "angle": 0,
          "clipped": true,
          "clipXOffset": 0,
          "clipYOffset": 0,
          "clipWidthFactor": 0.9999999999999996,
          "clipHeightFactor": 0.9999999999999996
        }
      },
      "cameraOffsets": {
        "layer1": {
          "deltaX": -11.352288990166727,
          "deltaY": -9.378175387152105,
          "widthFactor": 3.0189611476015554,
          "heightFactor": 1.398185331397222,
          "deltaAngle": 0
        }
      }
    },
    {
      "frameId": "frame5736",
      "title": "Routine",
      "titleLevel": 0,
      "notes": "",
      "timeoutMs": 0,
      "timeoutEnable": false,
      "transitionDurationMs": 1000,
      "showInFrameList": true,
      "showFrameNumber": true,
      "layerProperties": {
        "layer1": {
          "link": false,
          "referenceElementId": "path1723-9",
          "outlineElementId": "",
          "transitionTimingFunction": "linear",
          "transitionRelativeZoom": 0,
          "transitionPathId": ""
        },
        "__sozi_auto__": {
          "link": false,
          "referenceElementId": "",
          "outlineElementId": "",
          "transitionTimingFunction": "linear",
          "transitionRelativeZoom": 0,
          "transitionPathId": ""
        }
      },
      "cameraStates": {
        "layer1": {
          "cx": 76.5624330037266,
          "cy": 152.8009566545601,
          "width": 110.3551910247148,
          "height": 82.70549084523329,
          "opacity": 1,
          "angle": 0,
          "clipped": true,
          "clipXOffset": 0,
          "clipYOffset": 0,
          "clipWidthFactor": 0.9999999999999991,
          "clipHeightFactor": 0.9999999999999992
        },
        "__sozi_auto__": {
          "cx": 76.5624330037266,
          "cy": 152.8009566545601,
          "width": 110.3551910247148,
          "height": 82.70549084523329,
          "opacity": 1,
          "angle": 0,
          "clipped": true,
          "clipXOffset": 0,
          "clipYOffset": 0,
          "clipWidthFactor": 0.9999999999999991,
          "clipHeightFactor": 0.9999999999999992
        }
      },
      "cameraOffsets": {
        "layer1": {
          "deltaX": 30.034478902164096,
          "deltaY": -3.8872147321586397,
          "widthFactor": 2.6078900319352205,
          "heightFactor": 1.2078064046812267,
          "deltaAngle": 0
        }
      }
    },
    {
      "frameId": "frame6778",
      "title": "Form",
      "titleLevel": 0,
      "notes": "Estates and other facilities have routine checks that need to be done. Reports will need to be generatated from them and shared<div><br></div>",
      "timeoutMs": 0,
      "timeoutEnable": false,
      "transitionDurationMs": 1000,
      "showInFrameList": true,
      "showFrameNumber": true,
      "layerProperties": {
        "layer1": {
          "link": false,
          "referenceElementId": "path1723-9",
          "outlineElementId": "",
          "transitionTimingFunction": "linear",
          "transitionRelativeZoom": 0,
          "transitionPathId": ""
        },
        "__sozi_auto__": {
          "link": false,
          "referenceElementId": "",
          "outlineElementId": "",
          "transitionTimingFunction": "linear",
          "transitionRelativeZoom": 0,
          "transitionPathId": ""
        }
      },
      "cameraStates": {
        "layer1": {
          "cx": 41.89718065454044,
          "cy": 156.50333226936795,
          "width": 82.34874264141841,
          "height": 61.71611065510276,
          "opacity": 1,
          "angle": 0,
          "clipped": true,
          "clipXOffset": 0,
          "clipYOffset": 0,
          "clipWidthFactor": 0.9999999999999984,
          "clipHeightFactor": 0.999999999999999
        },
        "__sozi_auto__": {
          "cx": 41.89718065454044,
          "cy": 156.50333226936795,
          "width": 82.34874264141841,
          "height": 61.71611065510276,
          "opacity": 1,
          "angle": 0,
          "clipped": true,
          "clipXOffset": 0,
          "clipYOffset": 0,
          "clipWidthFactor": 0.9999999999999984,
          "clipHeightFactor": 0.999999999999999
        }
      },
      "cameraOffsets": {
        "layer1": {
          "deltaX": -4.630773447022058,
          "deltaY": -0.18483911735080483,
          "widthFactor": 1.9460476945652494,
          "heightFactor": 0.9012837353294612,
          "deltaAngle": 0
        }
      }
    },
    {
      "frameId": "frame7526",
      "title": "Calendar",
      "titleLevel": 0,
      "notes": "When was the window cleaner coming?<div>The roofer is coming next week can I give them some extra jobs?</div>",
      "timeoutMs": 0,
      "timeoutEnable": false,
      "transitionDurationMs": 1000,
      "showInFrameList": true,
      "showFrameNumber": true,
      "layerProperties": {
        "layer1": {
          "link": false,
          "referenceElementId": "path1723-9-5",
          "outlineElementId": "",
          "transitionTimingFunction": "linear",
          "transitionRelativeZoom": 0,
          "transitionPathId": ""
        },
        "__sozi_auto__": {
          "link": false,
          "referenceElementId": "",
          "outlineElementId": "",
          "transitionTimingFunction": "linear",
          "transitionRelativeZoom": 0,
          "transitionPathId": ""
        }
      },
      "cameraStates": {
        "layer1": {
          "cx": 107.862840911283,
          "cy": 159.10686139102435,
          "width": 82.34874264141841,
          "height": 61.71611065510276,
          "opacity": 1,
          "angle": 0,
          "clipped": true,
          "clipXOffset": -2.0124857844996575,
          "clipYOffset": -0.2687203656971093,
          "clipWidthFactor": 0.8355408388520972,
          "clipHeightFactor": 1.0147275405007365
        },
        "__sozi_auto__": {
          "cx": 107.862840911283,
          "cy": 159.10686139102435,
          "width": 82.34874264141841,
          "height": 61.71611065510276,
          "opacity": 1,
          "angle": 0,
          "clipped": true,
          "clipXOffset": -2.0124857844996575,
          "clipYOffset": -0.2687203656971093,
          "clipWidthFactor": 0.8355408388520972,
          "clipHeightFactor": 1.0147275405007365
        }
      },
      "cameraOffsets": {
        "layer1": {
          "deltaX": 2.596468230618939,
          "deltaY": 1.4565623187587278,
          "widthFactor": 1.9460475191327598,
          "heightFactor": 0.9012837353294612,
          "deltaAngle": 0
        }
      }
    },
    {
      "frameId": "frame8144",
      "title": "Issue tracker and Reports",
      "titleLevel": 0,
      "notes": "",
      "timeoutMs": 0,
      "timeoutEnable": false,
      "transitionDurationMs": 1000,
      "showInFrameList": true,
      "showFrameNumber": true,
      "layerProperties": {
        "layer1": {
          "link": false,
          "referenceElementId": "path6941",
          "outlineElementId": "",
          "transitionTimingFunction": "linear",
          "transitionRelativeZoom": 0,
          "transitionPathId": ""
        },
        "__sozi_auto__": {
          "link": false,
          "referenceElementId": "",
          "outlineElementId": "",
          "transitionTimingFunction": "linear",
          "transitionRelativeZoom": 0,
          "transitionPathId": ""
        }
      },
      "cameraStates": {
        "layer1": {
          "cx": 207.81003590198932,
          "cy": 153.94358342770417,
          "width": 121.66659810474822,
          "height": 91.18280365686981,
          "opacity": 1,
          "angle": 0,
          "clipped": true,
          "clipXOffset": 0,
          "clipYOffset": 0,
          "clipWidthFactor": 0.9999999999999982,
          "clipHeightFactor": 0.9999999999999988
        },
        "__sozi_auto__": {
          "cx": 207.81003590198932,
          "cy": 153.94358342770417,
          "width": 121.66659810474822,
          "height": 91.18280365686981,
          "opacity": 1,
          "angle": 0,
          "clipped": true,
          "clipXOffset": 0,
          "clipYOffset": 0,
          "clipWidthFactor": 0.9999999999999982,
          "clipHeightFactor": 0.9999999999999988
        }
      },
      "cameraOffsets": {
        "layer1": {
          "deltaX": 23.698768812145573,
          "deltaY": -2.7446032178036432,
          "widthFactor": 1.7767816463989872,
          "heightFactor": 2.15481251012602,
          "deltaAngle": 0
        }
      }
    },
    {
      "frameId": "frame6745",
      "title": "Issue tracker 1",
      "titleLevel": 0,
      "notes": "",
      "timeoutMs": 0,
      "timeoutEnable": false,
      "transitionDurationMs": 1000,
      "showInFrameList": true,
      "showFrameNumber": true,
      "layerProperties": {
        "layer1": {
          "link": false,
          "referenceElementId": "image7174",
          "outlineElementId": "",
          "transitionTimingFunction": "linear",
          "transitionRelativeZoom": 0,
          "transitionPathId": ""
        },
        "__sozi_auto__": {
          "link": false,
          "referenceElementId": "",
          "outlineElementId": "",
          "transitionTimingFunction": "linear",
          "transitionRelativeZoom": 0,
          "transitionPathId": ""
        }
      },
      "cameraStates": {
        "layer1": {
          "cx": 165.62455496656833,
          "cy": 151.2747778306246,
          "width": 39.604290685636485,
          "height": 29.68136134166355,
          "opacity": 1,
          "angle": 90,
          "clipped": true,
          "clipXOffset": 0,
          "clipYOffset": 0,
          "clipWidthFactor": 0.9999999999999918,
          "clipHeightFactor": 0.9999999999999941
        },
        "__sozi_auto__": {
          "cx": 165.62455496656833,
          "cy": 151.2747778306246,
          "width": 39.604290685636485,
          "height": 29.68136134166355,
          "opacity": 1,
          "angle": 90,
          "clipped": true,
          "clipXOffset": 0,
          "clipYOffset": 0,
          "clipWidthFactor": 0.9999999999999918,
          "clipHeightFactor": 0.9999999999999941
        }
      },
      "cameraOffsets": {
        "layer1": {
          "deltaX": -16.017290736556674,
          "deltaY": -5.001024781680087,
          "widthFactor": 0.7920858137127297,
          "heightFactor": 0.9300961293583275,
          "deltaAngle": 90
        }
      }
    },
    {
      "frameId": "frame9392",
      "title": "Issue tracker 2",
      "titleLevel": 0,
      "notes": "Where is the track that I submitted. Should I add more info? is it a duplicate?<div><br></div>",
      "timeoutMs": 0,
      "timeoutEnable": false,
      "transitionDurationMs": 1000,
      "showInFrameList": true,
      "showFrameNumber": true,
      "layerProperties": {
        "layer1": {
          "link": false,
          "referenceElementId": "image7174",
          "outlineElementId": "",
          "transitionTimingFunction": "linear",
          "transitionRelativeZoom": 0,
          "transitionPathId": ""
        },
        "__sozi_auto__": {
          "link": false,
          "referenceElementId": "",
          "outlineElementId": "",
          "transitionTimingFunction": "linear",
          "transitionRelativeZoom": 0,
          "transitionPathId": ""
        }
      },
      "cameraStates": {
        "layer1": {
          "cx": 169.34044169566866,
          "cy": 151.26884564903415,
          "width": 39.604290685636485,
          "height": 29.68136134166355,
          "opacity": 1,
          "angle": 0.5825678343487652,
          "clipped": true,
          "clipXOffset": 0,
          "clipYOffset": 0,
          "clipWidthFactor": 0.9999999999999918,
          "clipHeightFactor": 0.9999999999999941
        },
        "__sozi_auto__": {
          "cx": 169.34044169566866,
          "cy": 151.26884564903415,
          "width": 39.604290685636485,
          "height": 29.68136134166355,
          "opacity": 1,
          "angle": 0.5825678343487652,
          "clipped": true,
          "clipXOffset": 0,
          "clipYOffset": 0,
          "clipWidthFactor": 0.9999999999999918,
          "clipHeightFactor": 0.9999999999999941
        }
      },
      "cameraOffsets": {
        "layer1": {
          "deltaX": -12.301404007456341,
          "deltaY": -5.0069569632705395,
          "widthFactor": 0.7920858137127297,
          "heightFactor": 0.9300961293583275,
          "deltaAngle": 0.5825678343487652
        }
      }
    },
    {
      "frameId": "frame7439",
      "title": "Issue tracker 3",
      "titleLevel": 0,
      "notes": "Can I filter to only see the completed actions?",
      "timeoutMs": 0,
      "timeoutEnable": false,
      "transitionDurationMs": 1000,
      "showInFrameList": true,
      "showFrameNumber": true,
      "layerProperties": {
        "layer1": {
          "link": false,
          "referenceElementId": "image7174",
          "outlineElementId": "",
          "transitionTimingFunction": "linear",
          "transitionRelativeZoom": 0,
          "transitionPathId": ""
        },
        "__sozi_auto__": {
          "link": false,
          "referenceElementId": "",
          "outlineElementId": "",
          "transitionTimingFunction": "linear",
          "transitionRelativeZoom": 0,
          "transitionPathId": ""
        }
      },
      "cameraStates": {
        "layer1": {
          "cx": 184.30771088291488,
          "cy": 143.96939236379612,
          "width": 17.27922084132073,
          "height": 12.94987963714876,
          "opacity": 1,
          "angle": 0.5825678343487652,
          "clipped": true,
          "clipXOffset": 0,
          "clipYOffset": 0,
          "clipWidthFactor": 0.9999999999999913,
          "clipHeightFactor": 0.9999999999999939
        },
        "__sozi_auto__": {
          "cx": 184.30771088291488,
          "cy": 143.96939236379612,
          "width": 17.27922084132073,
          "height": 12.94987963714876,
          "opacity": 1,
          "angle": 0.5825678343487652,
          "clipped": true,
          "clipXOffset": 0,
          "clipYOffset": 0,
          "clipWidthFactor": 0.9999999999999913,
          "clipHeightFactor": 0.9999999999999939
        }
      },
      "cameraOffsets": {
        "layer1": {
          "deltaX": 2.6658651797898756,
          "deltaY": -12.30641024850857,
          "widthFactor": 0.3455844168264146,
          "heightFactor": 0.4057978603987178,
          "deltaAngle": 0.5825678343487652
        }
      }
    },
    {
      "frameId": "frame9919",
      "title": "Issue tracker 3",
      "titleLevel": 0,
      "notes": "",
      "timeoutMs": 0,
      "timeoutEnable": false,
      "transitionDurationMs": 1000,
      "showInFrameList": true,
      "showFrameNumber": true,
      "layerProperties": {
        "layer1": {
          "link": false,
          "referenceElementId": "path6941",
          "outlineElementId": "",
          "transitionTimingFunction": "linear",
          "transitionRelativeZoom": 0,
          "transitionPathId": ""
        },
        "__sozi_auto__": {
          "link": false,
          "referenceElementId": "",
          "outlineElementId": "",
          "transitionTimingFunction": "linear",
          "transitionRelativeZoom": 0,
          "transitionPathId": ""
        }
      },
      "cameraStates": {
        "layer1": {
          "cx": 185.6938090542474,
          "cy": 155.28141923022758,
          "width": 74.67979676369082,
          "height": 55.96863355689411,
          "opacity": 1,
          "angle": 0.41814602525607825,
          "clipped": true,
          "clipXOffset": -1.6485606349600623,
          "clipYOffset": 2.472840952440093,
          "clipWidthFactor": 1,
          "clipHeightFactor": 1
        },
        "__sozi_auto__": {
          "cx": 185.6938090542474,
          "cy": 155.28141923022758,
          "width": 74.67979676369082,
          "height": 55.96863355689411,
          "opacity": 1,
          "angle": 0.41814602525607825,
          "clipped": true,
          "clipXOffset": -1.6485606349600623,
          "clipYOffset": 2.472840952440093,
          "clipWidthFactor": 1,
          "clipHeightFactor": 1
        }
      },
      "cameraOffsets": {
        "layer1": {
          "deltaX": 1.5825419644036458,
          "deltaY": -1.4067674152802283,
          "widthFactor": 1.0906008248237025,
          "heightFactor": 1.3226387753648339,
          "deltaAngle": 0.41814602525607825
        }
      }
    },
    {
      "frameId": "frame7292",
      "title": "Reports",
      "titleLevel": 0,
      "notes": "Internal reports. Do we have enough fire inspections? Can I just dump all the information I have to the contractor?",
      "timeoutMs": 0,
      "timeoutEnable": false,
      "transitionDurationMs": 1000,
      "showInFrameList": true,
      "showFrameNumber": true,
      "layerProperties": {
        "layer1": {
          "link": false,
          "referenceElementId": "path6955",
          "outlineElementId": "",
          "transitionTimingFunction": "linear",
          "transitionRelativeZoom": 0,
          "transitionPathId": ""
        },
        "__sozi_auto__": {
          "link": false,
          "referenceElementId": "",
          "outlineElementId": "",
          "transitionTimingFunction": "linear",
          "transitionRelativeZoom": 0,
          "transitionPathId": ""
        }
      },
      "cameraStates": {
        "layer1": {
          "cx": 241.49090817291963,
          "cy": 151.3872143887353,
          "width": 105.0819735900723,
          "height": 78.75348793339856,
          "opacity": 1,
          "angle": 0.41814602525607825,
          "clipped": true,
          "clipXOffset": 2.1666386307231402,
          "clipYOffset": 1.7249631042813882,
          "clipWidthFactor": 0.4282560706401766,
          "clipHeightFactor": 0.9749631811487481
        },
        "__sozi_auto__": {
          "cx": 241.49090817291963,
          "cy": 151.3872143887353,
          "width": 105.0819735900723,
          "height": 78.75348793339856,
          "opacity": 1,
          "angle": 0.41814602525607825,
          "clipped": true,
          "clipXOffset": 2.1666386307231402,
          "clipYOffset": 1.7249631042813882,
          "clipWidthFactor": 0.4282560706401766,
          "clipHeightFactor": 0.9749631811487481
        }
      },
      "cameraOffsets": {
        "layer1": {
          "deltaX": -1.3587927548147434,
          "deltaY": -6.263084683530337,
          "widthFactor": 2.4832756161171097,
          "heightFactor": 1.1500925288617236,
          "deltaAngle": 0.41814602525607825
        }
      }
    },
    {
      "frameId": "frame7618",
      "title": "Full View",
      "titleLevel": 0,
      "notes": "",
      "timeoutMs": 0,
      "timeoutEnable": true,
      "transitionDurationMs": 1000,
      "showInFrameList": true,
      "showFrameNumber": true,
      "layerProperties": {
        "layer1": {
          "link": false,
          "referenceElementId": "path1723",
          "outlineElementId": "",
          "transitionTimingFunction": "linear",
          "transitionRelativeZoom": 0,
          "transitionPathId": ""
        },
        "__sozi_auto__": {
          "link": false,
          "referenceElementId": "",
          "outlineElementId": "",
          "transitionTimingFunction": "linear",
          "transitionRelativeZoom": 0,
          "transitionPathId": ""
        }
      },
      "cameraStates": {
        "layer1": {
          "cx": 148.62399048560965,
          "cy": 109.90700961988,
          "width": 292.7544473475159,
          "height": 219.40427124609636,
          "opacity": 1,
          "angle": 0.41814602525607825,
          "clipped": true,
          "clipXOffset": -2.710689327291814,
          "clipYOffset": 2.7834870232713715,
          "clipWidthFactor": 1.0728476821192052,
          "clipHeightFactor": 0.9867452135493373
        },
        "__sozi_auto__": {
          "cx": 148.62399048560965,
          "cy": 109.90700961988,
          "width": 292.7544473475159,
          "height": 219.40427124609636,
          "opacity": 1,
          "angle": 0.41814602525607825,
          "clipped": true,
          "clipXOffset": -2.710689327291814,
          "clipYOffset": 2.7834870232713715,
          "clipWidthFactor": 1.0728476821192052,
          "clipHeightFactor": 0.9867452135493373
        }
      },
      "cameraOffsets": {
        "layer1": {
          "deltaX": 101.24877686256278,
          "deltaY": 58.415638465094844,
          "widthFactor": 6.91830881519299,
          "heightFactor": 3.335211580717896,
          "deltaAngle": 0.41814602525607825
        }
      }
    }
  ],
  "elementsToHide": [],
  "customFiles": [],
  "selectedFrames": [
    "frame7292"
  ],
  "selectedLayers": [
    "layer1",
    "__sozi_auto__"
  ],
  "editableLayers": []
}